Model,Adjusted R2,Intercept,Coefficient,T stat,P
Rainfall position ~ height,0.024,1615.84,11.09,4.111,0.219
 Temp position ~ height ,0.028,32.11,-0.022,-4.425,>0.99
 Nitrogen position ~ height ,0.031,0.11,0.001,4.622,<0.0002
 Rainfall position ~ leaf area ,0.162,688.53,620.706,11.208,<0.0002
 Temp position ~ leaf area ,0.024,32.55,-0.459,-4.132,>0.99
 Nitrogen position ~ leaf area ,0.045,0.08,0.024,5.585,<0.0002
 Rainfall width ~ height ,0.028,1296.71,11.446,4.399,>0.99
 Temp width ~ height ,0.001,4.5,-0.01,-1.247,0.375
 Nitrogen width ~ height ,0.021,0.12,0.001,3.865,0.962
 Rainfall width ~ leaf area ,0.156,430.57,590.074,10.993,0.415
 Temp width ~ leaf area ,0.017,5.42,-0.606,-3.497,0.823
 Nitrogen width ~ leaf area ,0.059,0.08,0.034,6.444,0.963
,,,,,
